[gd_scene load_steps=2 format=2]

[ext_resource path="res://src/objects/pickupSpawner.gd" type="Script" id=1]


[node name="pickupSpawner1" type="Node2D"]
script = ExtResource( 1 )

[node name="SpawnPoints" type="Node2D" parent="."]

[node name="Position2D" type="Position2D" parent="SpawnPoints"]
position = Vector2( 104, 96 )
scale = Vector2( 0.5, 0.5 )

[node name="Position2D2" type="Position2D" parent="SpawnPoints"]
position = Vector2( 112, 56 )
scale = Vector2( 0.5, 0.5 )

[node name="Position2D3" type="Position2D" parent="SpawnPoints"]
position = Vector2( 40, 96 )
scale = Vector2( 0.5, 0.5 )
