[gd_scene load_steps=8 format=2]

[ext_resource path="res://src/assets/sprites/sprite.png" type="Texture" id=1]
[ext_resource path="res://src/objects/SlowDown.gd" type="Script" id=2]
[ext_resource path="res://src/assets/themes/ui_theme.tres" type="Theme" id=3]
[ext_resource path="res://src/assets/sounds/slow.wav" type="AudioStream" id=4]


[sub_resource type="Animation" id=1]
length = 0.001

[sub_resource type="Animation" id=2]
resource_name = "anim_player"
tracks/0/type = "value"
tracks/0/path = NodePath("Coin:modulate")
tracks/0/interp = 1
tracks/0/loop_wrap = true
tracks/0/imported = false
tracks/0/enabled = true
tracks/0/keys = {
"times": PoolRealArray( 0, 1 ),
"transitions": PoolRealArray( 1, 1 ),
"update": 0,
"values": [ Color( 1, 1, 1, 1 ), Color( 1, 1, 1, 0 ) ]
}

[sub_resource type="Animation" id=3]
resource_name = "collected"
length = 0.5
tracks/0/type = "value"
tracks/0/path = NodePath("../Label:modulate")
tracks/0/interp = 1
tracks/0/loop_wrap = true
tracks/0/imported = false
tracks/0/enabled = true
tracks/0/keys = {
"times": PoolRealArray( 0, 0.1, 0.5 ),
"transitions": PoolRealArray( 1, 1, 1 ),
"update": 0,
"values": [ Color( 1, 1, 1, 0 ), Color( 1, 1, 1, 1 ), Color( 1, 1, 1, 0 ) ]
}
tracks/1/type = "value"
tracks/1/path = NodePath("../Label:rect_position")
tracks/1/interp = 1
tracks/1/loop_wrap = true
tracks/1/imported = false
tracks/1/enabled = true
tracks/1/keys = {
"times": PoolRealArray( 0, 0.5 ),
"transitions": PoolRealArray( 1, 1 ),
"update": 0,
"values": [ Vector2( -8, -16 ), Vector2( -8, -24 ) ]
}

[node name="slowdown1" type="Area2D"]
collision_layer = 0
monitorable = false
script = ExtResource( 2 )

[node name="texture" type="Sprite" parent="."]
texture = ExtResource( 1 )
centered = false
hframes = 16
vframes = 16
frame = 33

[node name="CollisionShape2D" type="CollisionPolygon2D" parent="."]
position = Vector2( 6.5, 5.5 )
scale = Vector2( 0.625, 0.625 )
polygon = PoolVector2Array( -10.4, -10.4, -10.4, -8.8, 2.4, -8.8, 2.4, -10.4 )

[node name="AnimationPlayer" type="AnimationPlayer" parent="."]
root_node = NodePath("../texture")
anims/RESET = SubResource( 1 )
anims/anim_player = SubResource( 2 )
anims/collected = SubResource( 3 )

[node name="Label" type="Label" parent="."]
modulate = Color( 1, 1, 1, 0 )
margin_left = -8.0
margin_top = -16.0
margin_right = 16.0
margin_bottom = -8.0
theme = ExtResource( 3 )
text = "%s"
align = 1
__meta__ = {
"_edit_use_anchors_": false
}

[node name="AudioStreamPlayer" type="AudioStreamPlayer" parent="."]
stream = ExtResource( 4 )

[connection signal="body_entered" from="." to="." method="_on_body_entered"]
[connection signal="body_entered" from="." to="." method="_on_Portal2D_body_entered"]
[connection signal="body_exited" from="." to="." method="_on_flag_body_exited"]
