[gd_scene load_steps=2 format=2]

[ext_resource path="res://src/assets/tilesets/tileset.tres" type="TileSet" id=1]

[node name="GameBackground" type="Node2D"]

[node name="TileMap2" type="TileMap" parent="."]
tile_set = ExtResource( 1 )
cell_size = Vector2( 8, 8 )
format = 1
tile_data = PoolIntArray( 65540, 19, 0, 65552, 20, 0, 65572, 19, 0, 65574, 20, 0, 65578, 19, 0, 65586, 20, 0, 65596, 20, 0, 65599, 19, 0, 65602, 19, 0, 65607, 19, 0, 131077, 20, 0, 131081, 19, 0, 131087, 20, 0, 131090, 20, 0, 131099, 20, 0, 131108, 20, 0, 131113, 20, 0, 131121, 19, 0, 131131, 20, 0, 131136, 20, 0, 196612, 17, 0, 196613, 17, 0, 196614, 17, 0, 196622, 17, 0, 196623, 17, 0, 196624, 17, 0, 196625, 17, 0, 196626, 17, 0, 196627, 17, 0, 196631, 19, 0, 196634, 17, 0, 196635, 17, 0, 196636, 17, 0, 196637, 17, 0, 196642, 17, 0, 196643, 17, 0, 196644, 17, 0, 196645, 17, 0, 196646, 17, 0, 196647, 17, 0, 196648, 17, 0, 196649, 17, 0, 196657, 17, 0, 196658, 17, 0, 196659, 17, 0, 196666, 17, 0, 196667, 17, 0, 196668, 17, 0, 196669, 17, 0, 196670, 17, 0, 196671, 17, 0, 196672, 17, 0, 196673, 17, 0, 196674, 17, 0, 196675, 17, 0, 262147, 15, 0, 262148, 16, 0, 262149, 16, 0, 262150, 16, 0, 262151, 14, 0, 262157, 15, 0, 262158, 16, 0, 262159, 16, 0, 262160, 16, 0, 262161, 16, 0, 262162, 16, 0, 262163, 16, 0, 262164, 14, 0, 262169, 15, 0, 262170, 16, 0, 262171, 16, 0, 262172, 16, 0, 262173, 16, 0, 262174, 14, 0, 262176, 20, 0, 262177, 15, 0, 262178, 16, 0, 262179, 16, 0, 262180, 16, 0, 262181, 16, 0, 262182, 16, 0, 262183, 16, 0, 262184, 16, 0, 262185, 16, 0, 262186, 14, 0, 262192, 15, 0, 262193, 16, 0, 262194, 16, 0, 262195, 16, 0, 262196, 14, 0, 262201, 15, 0, 262202, 16, 0, 262203, 16, 0, 262204, 16, 0, 262205, 16, 0, 262206, 16, 0, 262207, 16, 0, 262208, 16, 0, 262209, 16, 0, 262210, 16, 0, 262211, 16, 0, 262212, 14, 0, 327683, 15, 0, 327684, 16, 0, 327685, 16, 0, 327686, 16, 0, 327687, 14, 0, 327693, 15, 0, 327694, 16, 0, 327695, 16, 0, 327696, 16, 0, 327697, 16, 0, 327698, 16, 0, 327699, 16, 0, 327700, 14, 0, 327705, 15, 0, 327706, 16, 0, 327707, 16, 0, 327708, 16, 0, 327709, 16, 0, 327710, 14, 0, 327713, 15, 0, 327714, 16, 0, 327715, 16, 0, 327716, 16, 0, 327717, 16, 0, 327718, 16, 0, 327719, 16, 0, 327720, 16, 0, 327721, 16, 0, 327722, 14, 0, 327728, 15, 0, 327729, 16, 0, 327730, 16, 0, 327731, 16, 0, 327732, 14, 0, 327737, 15, 0, 327738, 16, 0, 327739, 16, 0, 327740, 16, 0, 327741, 16, 0, 327742, 16, 0, 327743, 16, 0, 327744, 16, 0, 327745, 16, 0, 327746, 16, 0, 327747, 16, 0, 327748, 14, 0, 393219, 15, 0, 393220, 16, 0, 393221, 16, 0, 393222, 16, 0, 393223, 14, 0, 393229, 15, 0, 393230, 16, 0, 393231, 16, 0, 393232, 16, 0, 393233, 16, 0, 393234, 16, 0, 393235, 16, 0, 393236, 14, 0, 393241, 15, 0, 393242, 16, 0, 393243, 16, 0, 393244, 16, 0, 393245, 16, 0, 393246, 14, 0, 393249, 15, 0, 393250, 16, 0, 393251, 16, 0, 393252, 16, 0, 393253, 16, 0, 393254, 16, 0, 393255, 16, 0, 393256, 16, 0, 393257, 16, 0, 393258, 14, 0, 393264, 15, 0, 393265, 16, 0, 393266, 16, 0, 393267, 16, 0, 393268, 14, 0, 393273, 15, 0, 393274, 16, 0, 393275, 16, 0, 393276, 16, 0, 393277, 16, 0, 393278, 16, 0, 393279, 16, 0, 393280, 16, 0, 393281, 16, 0, 393282, 16, 0, 393283, 16, 0, 393284, 14, 0, 458756, 18, 0, 458757, 18, 0, 458758, 18, 0, 458766, 18, 0, 458767, 18, 0, 458768, 18, 0, 458769, 18, 0, 458770, 18, 0, 458771, 18, 0, 458778, 18, 0, 458779, 18, 0, 458780, 18, 0, 458781, 18, 0, 458786, 18, 0, 458787, 18, 0, 458788, 18, 0, 458789, 18, 0, 458790, 18, 0, 458791, 18, 0, 458792, 18, 0, 458793, 18, 0, 458801, 18, 0, 458802, 18, 0, 458803, 18, 0, 458810, 18, 0, 458811, 18, 0, 458812, 18, 0, 458813, 18, 0, 458814, 18, 0, 458815, 18, 0, 458816, 18, 0, 458817, 18, 0, 458818, 18, 0, 458819, 18, 0, 589824, 17, 0, 589825, 17, 0, 589826, 17, 0, 589827, 17, 0, 589828, 17, 0, 589829, 17, 0, 589830, 17, 0, 589831, 17, 0, 589832, 17, 0, 589833, 17, 0, 589834, 17, 0, 589835, 17, 0, 589836, 17, 0, 589837, 17, 0, 589838, 17, 0, 589839, 17, 0, 589840, 17, 0, 589841, 17, 0, 589842, 17, 0, 589843, 17, 0, 589844, 17, 0, 589845, 17, 0, 589846, 17, 0, 589847, 17, 0, 589848, 17, 0, 589849, 17, 0, 589850, 17, 0, 589851, 17, 0, 589852, 17, 0, 589853, 17, 0, 589854, 17, 0, 589855, 17, 0, 589856, 17, 0, 589857, 17, 0, 589858, 17, 0, 589859, 17, 0, 589860, 17, 0, 589861, 17, 0, 589862, 17, 0, 589863, 17, 0, 589864, 17, 0, 589865, 17, 0, 589866, 17, 0, 589867, 17, 0, 589868, 17, 0, 589869, 17, 0, 589870, 17, 0, 589871, 17, 0, 589872, 17, 0, 589873, 17, 0, 589874, 17, 0, 589875, 17, 0, 589876, 17, 0, 589877, 17, 0, 589878, 17, 0, 589879, 17, 0, 589880, 17, 0, 589881, 17, 0, 589882, 17, 0, 589883, 17, 0, 589884, 17, 0, 589885, 17, 0, 589886, 17, 0, 589887, 17, 0, 589888, 17, 0, 589889, 17, 0, 589890, 17, 0, 589891, 17, 0, 589892, 17, 0, 589893, 17, 0, 589894, 17, 0, 589895, 17, 0, 589896, 17, 0, 589897, 17, 0, 655360, 16, 0, 655361, 16, 0, 655362, 16, 0, 655363, 16, 0, 655364, 16, 0, 655365, 16, 0, 655366, 16, 0, 655367, 16, 0, 655368, 16, 0, 655369, 16, 0, 655370, 16, 0, 655371, 16, 0, 655372, 16, 0, 655373, 16, 0, 655374, 16, 0, 655375, 16, 0, 655376, 16, 0, 655377, 16, 0, 655378, 16, 0, 655379, 16, 0, 655380, 16, 0, 655381, 16, 0, 655382, 16, 0, 655383, 16, 0, 655384, 16, 0, 655385, 16, 0, 655386, 16, 0, 655387, 16, 0, 655388, 16, 0, 655389, 16, 0, 655390, 16, 0, 655391, 16, 0, 655392, 16, 0, 655393, 16, 0, 655394, 16, 0, 655395, 16, 0, 655396, 16, 0, 655397, 16, 0, 655398, 16, 0, 655399, 16, 0, 655400, 16, 0, 655401, 16, 0, 655402, 16, 0, 655403, 16, 0, 655404, 16, 0, 655405, 16, 0, 655406, 16, 0, 655407, 16, 0, 655408, 16, 0, 655409, 16, 0, 655410, 16, 0, 655411, 16, 0, 655412, 16, 0, 655413, 16, 0, 655414, 16, 0, 655415, 16, 0, 655416, 16, 0, 655417, 16, 0, 655418, 16, 0, 655419, 16, 0, 655420, 16, 0, 655421, 16, 0, 655422, 16, 0, 655423, 16, 0, 655424, 16, 0, 655425, 16, 0, 655426, 16, 0, 655427, 16, 0, 655428, 16, 0, 655429, 16, 0, 655430, 16, 0, 655431, 16, 0, 655432, 16, 0, 655433, 16, 0, 720896, 16, 0, 720897, 16, 0, 720898, 16, 0, 720899, 16, 0, 720900, 16, 0, 720901, 16, 0, 720902, 16, 0, 720903, 16, 0, 720904, 16, 0, 720905, 16, 0, 720906, 16, 0, 720907, 16, 0, 720908, 16, 0, 720909, 16, 0, 720910, 16, 0, 720911, 16, 0, 720912, 16, 0, 720913, 16, 0, 720914, 16, 0, 720915, 16, 0, 720916, 16, 0, 720917, 16, 0, 720918, 16, 0, 720919, 16, 0, 720920, 16, 0, 720921, 16, 0, 720922, 16, 0, 720923, 16, 0, 720924, 16, 0, 720925, 16, 0, 720926, 16, 0, 720927, 16, 0, 720928, 16, 0, 720929, 16, 0, 720930, 16, 0, 720931, 16, 0, 720932, 16, 0, 720933, 16, 0, 720934, 16, 0, 720935, 16, 0, 720936, 16, 0, 720937, 16, 0, 720938, 16, 0, 720939, 16, 0, 720940, 16, 0, 720941, 16, 0, 720942, 16, 0, 720943, 16, 0, 720944, 16, 0, 720945, 16, 0, 720946, 16, 0, 720947, 16, 0, 720948, 16, 0, 720949, 16, 0, 720950, 16, 0, 720951, 16, 0, 720952, 16, 0, 720953, 16, 0, 720954, 16, 0, 720955, 16, 0, 720956, 16, 0, 720957, 16, 0, 720958, 16, 0, 720959, 16, 0, 720960, 16, 0, 720961, 16, 0, 720962, 16, 0, 720963, 16, 0, 720964, 16, 0, 720965, 16, 0, 720966, 16, 0, 720967, 16, 0, 720968, 16, 0, 720969, 16, 0, 786432, 16, 0, 786433, 16, 0, 786434, 16, 0, 786435, 16, 0, 786436, 16, 0, 786437, 16, 0, 786438, 16, 0, 786439, 16, 0, 786440, 16, 0, 786441, 16, 0, 786442, 16, 0, 786443, 16, 0, 786444, 16, 0, 786445, 16, 0, 786446, 16, 0, 786447, 16, 0, 786448, 16, 0, 786449, 16, 0, 786450, 16, 0, 786451, 16, 0, 786452, 16, 0, 786453, 16, 0, 786454, 16, 0, 786455, 16, 0, 786456, 16, 0, 786457, 16, 0, 786458, 16, 0, 786459, 16, 0, 786460, 16, 0, 786461, 16, 0, 786462, 16, 0, 786463, 16, 0, 786464, 16, 0, 786465, 16, 0, 786466, 16, 0, 786467, 16, 0, 786468, 16, 0, 786469, 16, 0, 786470, 16, 0, 786471, 16, 0, 786472, 16, 0, 786473, 16, 0, 786474, 16, 0, 786475, 16, 0, 786476, 16, 0, 786477, 16, 0, 786478, 16, 0, 786479, 16, 0, 786480, 16, 0, 786481, 16, 0, 786482, 16, 0, 786483, 16, 0, 786484, 16, 0, 786485, 16, 0, 786486, 16, 0, 786487, 16, 0, 786488, 16, 0, 786489, 16, 0, 786490, 16, 0, 786491, 16, 0, 786492, 16, 0, 786493, 16, 0, 786494, 16, 0, 786495, 16, 0, 786496, 16, 0, 786497, 16, 0, 786498, 16, 0, 786499, 16, 0, 786500, 16, 0, 786501, 16, 0, 786502, 16, 0, 786503, 16, 0, 786504, 16, 0, 786505, 16, 0, 851968, 16, 0, 851969, 16, 0, 851970, 16, 0, 851971, 16, 0, 851972, 16, 0, 851973, 16, 0, 851974, 16, 0, 851975, 16, 0, 851976, 16, 0, 851977, 16, 0, 851978, 16, 0, 851979, 16, 0, 851980, 16, 0, 851981, 16, 0, 851982, 16, 0, 851983, 16, 0, 851984, 16, 0, 851985, 16, 0, 851986, 16, 0, 851987, 16, 0, 851988, 16, 0, 851989, 16, 0, 851990, 16, 0, 851991, 16, 0, 851992, 16, 0, 851993, 16, 0, 851994, 16, 0, 851995, 16, 0, 851996, 16, 0, 851997, 16, 0, 851998, 16, 0, 851999, 16, 0, 852000, 16, 0, 852001, 16, 0, 852002, 16, 0, 852003, 16, 0, 852004, 16, 0, 852005, 16, 0, 852006, 16, 0, 852007, 16, 0, 852008, 16, 0, 852009, 16, 0, 852010, 16, 0, 852011, 16, 0, 852012, 16, 0, 852013, 16, 0, 852014, 16, 0, 852015, 16, 0, 852016, 16, 0, 852017, 16, 0, 852018, 16, 0, 852019, 16, 0, 852020, 16, 0, 852021, 16, 0, 852022, 16, 0, 852023, 16, 0, 852024, 16, 0, 852025, 16, 0, 852026, 16, 0, 852027, 16, 0, 852028, 16, 0, 852029, 16, 0, 852030, 16, 0, 852031, 16, 0, 852032, 16, 0, 852033, 16, 0, 852034, 16, 0, 852035, 16, 0, 852036, 16, 0, 852037, 16, 0, 852038, 16, 0, 852039, 16, 0, 852040, 16, 0, 852041, 16, 0, 917504, 16, 0, 917505, 16, 0, 917506, 16, 0, 917507, 16, 0, 917508, 16, 0, 917509, 16, 0, 917510, 16, 0, 917511, 16, 0, 917512, 16, 0, 917513, 16, 0, 917514, 16, 0, 917515, 16, 0, 917516, 16, 0, 917517, 16, 0, 917518, 16, 0, 917519, 16, 0, 917520, 16, 0, 917521, 16, 0, 917522, 16, 0, 917523, 16, 0, 917524, 16, 0, 917525, 16, 0, 917526, 16, 0, 917527, 16, 0, 917528, 16, 0, 917529, 16, 0, 917530, 16, 0, 917531, 16, 0, 917532, 16, 0, 917533, 16, 0, 917534, 16, 0, 917535, 16, 0, 917536, 16, 0, 917537, 16, 0, 917538, 16, 0, 917539, 16, 0, 917540, 16, 0, 917541, 16, 0, 917542, 16, 0, 917543, 16, 0, 917544, 16, 0, 917545, 16, 0, 917546, 16, 0, 917547, 16, 0, 917548, 16, 0, 917549, 16, 0, 917550, 16, 0, 917551, 16, 0, 917552, 16, 0, 917553, 16, 0, 917554, 16, 0, 917555, 16, 0, 917556, 16, 0, 917557, 16, 0, 917558, 16, 0, 917559, 16, 0, 917560, 16, 0, 917561, 16, 0, 917562, 16, 0, 917563, 16, 0, 917564, 16, 0, 917565, 16, 0, 917566, 16, 0, 917567, 16, 0, 917568, 16, 0, 917569, 16, 0, 917570, 16, 0, 917571, 16, 0, 917572, 16, 0, 917573, 16, 0, 917574, 16, 0, 917575, 16, 0, 917576, 16, 0, 917577, 16, 0, 983040, 16, 0, 983041, 16, 0, 983042, 16, 0, 983043, 16, 0, 983044, 16, 0, 983045, 16, 0, 983046, 16, 0, 983047, 16, 0, 983048, 16, 0, 983049, 16, 0, 983050, 16, 0, 983051, 16, 0, 983052, 16, 0, 983053, 16, 0, 983054, 16, 0, 983055, 16, 0, 983056, 16, 0, 983057, 16, 0, 983058, 16, 0, 983059, 16, 0, 983060, 16, 0, 983061, 16, 0, 983062, 16, 0, 983063, 16, 0, 983064, 16, 0, 983065, 16, 0, 983066, 16, 0, 983067, 16, 0, 983068, 16, 0, 983069, 16, 0, 983070, 16, 0, 983071, 16, 0, 983072, 16, 0, 983073, 16, 0, 983074, 16, 0, 983075, 16, 0, 983076, 16, 0, 983077, 16, 0, 983078, 16, 0, 983079, 16, 0, 983080, 16, 0, 983081, 16, 0, 983082, 16, 0, 983083, 16, 0, 983084, 16, 0, 983085, 16, 0, 983086, 16, 0, 983087, 16, 0, 983088, 16, 0, 983089, 16, 0, 983090, 16, 0, 983091, 16, 0, 983092, 16, 0, 983093, 16, 0, 983094, 16, 0, 983095, 16, 0, 983096, 16, 0, 983097, 16, 0, 983098, 16, 0, 983099, 16, 0, 983100, 16, 0, 983101, 16, 0, 983102, 16, 0, 983103, 16, 0, 983104, 16, 0, 983105, 16, 0, 983106, 16, 0, 983107, 16, 0, 983108, 16, 0, 983109, 16, 0, 983110, 16, 0, 983111, 16, 0, 983112, 16, 0, 983113, 16, 0 )
